3rd Sem/Lab/CA/CA LAB/Basic Gets/4_H_F_substractor/fs.vcd
$date
  Fri Jun 23 15:46:47 2023
$end
$version
  GHDL v0
$end
$timescale
  1 fs
$end
$var reg 1 ! a $end
$var reg 1 " b $end
$var reg 1 # bin $end
$var reg 1 $ d $end
$var reg 1 % bo $end
$scope module full_subtractor $end
$var reg 1 & a $end
$var reg 1 ' b $end
$var reg 1 ( bin $end
$var reg 1 ) d $end
$var reg 1 * bo $end
$upscope $end
$enddefinitions $end
#0
0!
0"
0#
0$
0%
0&
0'
0(
0)
0*
#1000000
1#
1$
1%
1(
1)
1*
#2000000
1"
0#
1'
0(
#3000000
1#
0$
1(
0)
#4000000
1!
0"
0#
1$
0%
1&
0'
0(
1)
0*
#5000000
1#
0$
1(
0)
#6000000
1"
0#
1'
0(
#7000000
1#
1$
1%
1(
1)
1*
