3rd Sem/Lab/CA/CA LAB/Basic Gets/5_Encoder_Decoder/de.vcd
$date
  Sat Jul 15 19:35:15 2023
$end
$version
  GHDL v0
$end
$timescale
  1 fs
$end
$var reg 1 ! x $end
$var reg 1 " y $end
$var reg 1 # z $end
$var reg 1 $ d0 $end
$var reg 1 % d1 $end
$var reg 1 & d2 $end
$var reg 1 ' d3 $end
$var reg 1 ( d4 $end
$var reg 1 ) d5 $end
$var reg 1 * d6 $end
$var reg 1 + d7 $end
$scope module decoder $end
$var reg 1 , x $end
$var reg 1 - y $end
$var reg 1 . z $end
$var reg 1 / d0 $end
$var reg 1 0 d1 $end
$var reg 1 1 d2 $end
$var reg 1 2 d3 $end
$var reg 1 3 d4 $end
$var reg 1 4 d5 $end
$var reg 1 5 d6 $end
$var reg 1 6 d7 $end
$upscope $end
$enddefinitions $end
#0
0!
0"
0#
1$
0%
0&
0'
0(
0)
0*
0+
0,
0-
0.
1/
00
01
02
03
04
05
06
#1000000
1#
0$
1%
1.
0/
10
#2000000
1"
0#
0%
1&
1-
0.
00
11
#3000000
1#
0&
1'
1.
01
12
#4000000
1!
0"
0#
0'
1(
1,
0-
0.
02
13
#5000000
1#
0(
1)
1.
03
14
#6000000
1"
0#
0)
1*
1-
0.
04
15
#7000000
1#
0*
1+
1.
05
16
