3rd Sem/Lab/CA/CA LAB/Basic Gets/7_Demux_1_8/demux.vcd
$date
  Fri Jul 21 15:47:53 2023
$end
$version
  GHDL v0
$end
$timescale
  1 fs
$end
$var reg 1 ! s2 $end
$var reg 1 " s1 $end
$var reg 1 # s0 $end
$var reg 1 $ i0 $end
$var reg 1 % i1 $end
$var reg 1 & i2 $end
$var reg 1 ' i3 $end
$var reg 1 ( i4 $end
$var reg 1 ) i5 $end
$var reg 1 * i6 $end
$var reg 1 + i7 $end
$var reg 1 , d $end
$scope module demux_get $end
$var reg 1 - i0 $end
$var reg 1 . i1 $end
$var reg 1 / i2 $end
$var reg 1 0 i3 $end
$var reg 1 1 i4 $end
$var reg 1 2 i5 $end
$var reg 1 3 i6 $end
$var reg 1 4 i7 $end
$var reg 1 5 s2 $end
$var reg 1 6 s1 $end
$var reg 1 7 s0 $end
$var reg 1 8 d $end
$upscope $end
$enddefinitions $end
#0
0!
0"
0#
1$
0%
0&
0'
0(
0)
0*
0+
1,
1-
0.
0/
00
01
02
03
04
05
06
07
18
#1000000
1#
0$
1%
0-
1.
17
#2000000
1"
0#
0%
1&
0.
1/
16
07
#3000000
1#
0&
1'
0/
10
17
#4000000
1!
0"
0#
0'
1(
00
11
15
06
07
#5000000
1#
0(
1)
01
12
17
#6000000
1"
0#
0)
1*
02
13
16
07
#7000000
1#
0*
1+
03
14
17
