3rd Sem/Lab/CA/CA LAB/Basic Gets/3_H_F_adder/fa.vcd
$date
  Fri Jun 16 21:09:59 2023
$end
$version
  GHDL v0
$end
$timescale
  1 fs
$end
$var reg 1 ! a $end
$var reg 1 " b $end
$var reg 1 # s $end
$var reg 1 $ cin $end
$var reg 1 % cout $end
$scope module full_adder $end
$var reg 1 & a $end
$var reg 1 ' b $end
$var reg 1 ( cin $end
$var reg 1 ) s $end
$var reg 1 * cout $end
$upscope $end
$enddefinitions $end
#0
0!
0"
0#
0$
0%
0&
0'
0(
0)
0*
#1000000
1#
1$
1(
1)
#2000000
1"
0$
1'
0(
#3000000
0#
1$
1%
1(
0)
1*
#4000000
1!
0"
1#
0$
0%
1&
0'
0(
1)
0*
#5000000
0#
1$
1%
1(
0)
1*
#6000000
1"
0$
1'
0(
#7000000
1#
1$
1(
1)
