3rd Sem/Lab/CA/CA LAB/Basic Gets/6_Mux_8_1/mux.vcd
$date
  Thu Jul 20 17:21:39 2023
$end
$version
  GHDL v0
$end
$timescale
  1 fs
$end
$var reg 1 ! s2 $end
$var reg 1 " s1 $end
$var reg 1 # s0 $end
$var reg 1 $ i0 $end
$var reg 1 % i1 $end
$var reg 1 & i2 $end
$var reg 1 ' i3 $end
$var reg 1 ( i4 $end
$var reg 1 ) i5 $end
$var reg 1 * i6 $end
$var reg 1 + i7 $end
$var reg 1 , o $end
$scope module mux_get $end
$var reg 1 - s2 $end
$var reg 1 . s1 $end
$var reg 1 / s0 $end
$var reg 1 0 i0 $end
$var reg 1 1 i1 $end
$var reg 1 2 i2 $end
$var reg 1 3 i3 $end
$var reg 1 4 i4 $end
$var reg 1 5 i5 $end
$var reg 1 6 i6 $end
$var reg 1 7 i7 $end
$var reg 1 8 o $end
$upscope $end
$enddefinitions $end
#0
0!
0"
0#
1$
0%
0&
0'
0(
0)
0*
0+
1,
0-
0.
0/
10
01
02
03
04
05
06
07
18
#1000000
1#
0$
1%
1/
00
11
#2000000
1"
0#
0%
1&
1.
0/
01
12
#3000000
1#
0&
1'
1/
02
13
#4000000
1!
0"
0#
0'
1(
1-
0.
0/
03
14
#5000000
1#
0(
1)
1/
04
15
#6000000
1"
0#
0)
1*
1.
0/
05
16
#7000000
1#
0*
1+
1/
06
17
